…
``` r
read.csv("data/accel_data.csv") %>% 
  pivot_longer( activity.1:activity.1440,
    names_to = "minute",
    names_prefix = "activity.",
    values_to = "activity_count"
  ) %>% 
  mutate(
    day = factor(day),
    minute = as.numeric(minute),
    weekday_weekend = recode(day, "Monday" = "weekday", "Tuesday" = "weekday", "Wednesday" = "weekday", "Thursday" = "weekday", "Friday" = "weekday", "Saturday" = "weekend", "Sunday" = "weekend"))
```

    ## # A tibble: 50,400 x 6
    ##     week day_id day    minute activity_count weekday_weekend
    ##    <int>  <int> <fct>   <dbl>          <dbl> <fct>          
    ##  1     1      1 Friday      1           88.4 weekday        
    ##  2     1      1 Friday      2           82.2 weekday        
    ##  3     1      1 Friday      3           64.4 weekday        
    ##  4     1      1 Friday      4           70.0 weekday        
    ##  5     1      1 Friday      5           75.0 weekday        
    ##  6     1      1 Friday      6           66.3 weekday        
    ##  7     1      1 Friday      7           53.8 weekday        
    ##  8     1      1 Friday      8           47.8 weekday        
    ##  9     1      1 Friday      9           55.5 weekday        
    ## 10     1      1 Friday     10           43.0 weekday        
    ## # … with 50,390 more rows
